co\gov\mineducacion\sigaa\web\ws\dominio\ReportarActoRequest.class
co\gov\mineducacion\sigaa\web\ws\main\Main.class
co\gov\mineducacion\sigaa\web\ws\dominio\ActosAdministrativosWSDTO.class
co\gov\mineducacion\sigaa\web\ws\imp\WsNotificacionesSigaa.class
co\gov\mineducacion\sigaa\web\ws\interfaces\IWsNotificacionesSigaaLocal.class
co\gov\mineducacion\sigaa\web\ws\dominio\MensajesWS.class
co\gov\mineducacion\sigaa\web\ws\dominio\GenericResponse.class
co\gov\mineducacion\sigaa\web\ws\interfaces\IWsNotificacionesSigaaRemote.class
