c:\SIGAA\wsnotificacionessigaa\src\main\java\co\gov\mineducacion\sigaa\web\ws\dominio\MensajesWS.java
c:\SIGAA\wsnotificacionessigaa\src\main\java\co\gov\mineducacion\sigaa\web\ws\dominio\ActosAdministrativosWSDTO.java
c:\SIGAA\wsnotificacionessigaa\src\main\java\co\gov\mineducacion\sigaa\web\ws\dominio\GenericResponse.java
c:\SIGAA\wsnotificacionessigaa\src\main\java\co\gov\mineducacion\sigaa\web\ws\dominio\ReportarActoRequest.java
c:\SIGAA\wsnotificacionessigaa\src\main\java\co\gov\mineducacion\sigaa\web\ws\interfaces\IWsNotificacionesSigaaRemote.java
c:\SIGAA\wsnotificacionessigaa\src\main\java\co\gov\mineducacion\sigaa\web\ws\main\Main.java
c:\SIGAA\wsnotificacionessigaa\src\main\java\co\gov\mineducacion\sigaa\web\ws\interfaces\IWsNotificacionesSigaaLocal.java
c:\SIGAA\wsnotificacionessigaa\src\main\java\co\gov\mineducacion\sigaa\web\ws\imp\WsNotificacionesSigaa.java
